<svg xmlns="http://www.w3.org/2000/svg" width="30" height="18" viewBox="0 0 30 18">
  <path id="ic_group_add_24px" d="M10,11.923H6.25V7.769H3.75v4.154H0v2.769H3.75v4.154h2.5V14.692H10Zm12.5,1.385a3.952,3.952,0,0,0,3.738-4.154A3.952,3.952,0,0,0,22.5,5a3.405,3.405,0,0,0-1.137.194,7.349,7.349,0,0,1,1.125,3.96,7.5,7.5,0,0,1-1.125,3.96A3.405,3.405,0,0,0,22.5,13.308Zm-6.25,0a3.952,3.952,0,0,0,3.737-4.154A3.952,3.952,0,0,0,16.25,5,3.962,3.962,0,0,0,12.5,9.154,3.962,3.962,0,0,0,16.25,13.308ZM24.525,16.3a5.342,5.342,0,0,1,1.725,3.932V23H30V20.231C30,18.1,27.037,16.783,24.525,16.3Zm-8.275-.222c-2.5,0-7.5,1.385-7.5,4.154V23h15V20.231C23.75,17.462,18.75,16.077,16.25,16.077Z" transform="translate(0 -5)" fill="#fff"/>
</svg>
