<svg xmlns="http://www.w3.org/2000/svg" width="44" height="44" viewBox="0 0 44 44">
  <g id="Group_87" data-name="Group 87" transform="translate(-158 -92)">
    <g id="Group_66" data-name="Group 66" transform="translate(-18 -298)">
      <circle id="Ellipse_30" data-name="Ellipse 30" cx="22" cy="22" r="22" transform="translate(176 390)" fill="#f0bb3f"/>
      <g id="ic_spa_24px" transform="translate(184.615 398.615)">
        <path id="Path_102" data-name="Path 102" d="M9.745,12.545A15.953,15.953,0,0,0,5.02,10.39,15.953,15.953,0,0,1,9.745,12.545ZM23.7,10.39a15.688,15.688,0,0,0-4.778,2.2A15.688,15.688,0,0,1,23.7,10.39Z" transform="translate(-0.978 0.84)" fill="#fff"/>
        <path id="Path_103" data-name="Path 103" d="M20.056,12.212A15.783,15.783,0,0,0,15.465,2a16.313,16.313,0,0,0-4.752,10.212,18.56,18.56,0,0,1,4.671,3.52,19.217,19.217,0,0,1,4.671-3.52Zm-8.7,3.547c-.187-.134-.4-.254-.6-.388C10.954,15.518,11.168,15.625,11.356,15.759Zm8.593-.335c-.174.12-.361.214-.535.348C19.587,15.639,19.775,15.545,19.949,15.425ZM15.385,20A15.988,15.988,0,0,0,2,12.708,16.294,16.294,0,0,0,12.748,28.086a14.387,14.387,0,0,0,2.637.683,17.32,17.32,0,0,0,2.637-.683A16.294,16.294,0,0,0,28.769,12.708,15.988,15.988,0,0,0,15.385,20Z" transform="translate(-2 -2)" fill="#fff"/>
      </g>
    </g>
  </g>
</svg>
