<svg xmlns="http://www.w3.org/2000/svg" width="41.985" height="46.317" viewBox="0 0 41.985 46.317">
  <path id="ic_date_range_24px" d="M16,21.493H11.663v4.332H16Zm8.663,0H20.327v4.332h4.332Zm8.663,0H28.99v4.332h4.332ZM37.653,6.332H35.488V2H31.156V6.332H13.829V2H9.5V6.332H7.332a4.312,4.312,0,0,0-4.31,4.332L3,40.985a4.33,4.33,0,0,0,4.332,4.332H37.653a4.344,4.344,0,0,0,4.332-4.332V10.663A4.344,4.344,0,0,0,37.653,6.332Zm0,34.653H7.332V17.161H37.653Z" transform="translate(-1.5 -0.5)" fill="none" stroke="#212121" stroke-width="3"/>
</svg>
