<svg xmlns="http://www.w3.org/2000/svg" width="25" height="25" viewBox="0 0 25 25">
  <g id="Group_21" data-name="Group 21" transform="translate(0 -0.158)">
    <g id="Ellipse_18" data-name="Ellipse 18" transform="translate(0 0.158)" fill="#00a13c" stroke="#fff" stroke-width="1">
      <circle cx="12.5" cy="12.5" r="12.5" stroke="none"/>
      <circle cx="12.5" cy="12.5" r="12" fill="none"/>
    </g>
    <path id="ic_check_24px" d="M7.217,12.795l-2.84-2.84-.967.96,3.807,3.807L15.389,6.55l-.96-.96Z" transform="translate(3.53 2.117)" fill="#fff"/>
  </g>
</svg>
