<svg xmlns="http://www.w3.org/2000/svg" width="23" height="23" viewBox="0 0 23 23">
  <g id="Group_29" data-name="Group 29" transform="translate(-62 -73)">
    <circle id="Ellipse_20" data-name="Ellipse 20" cx="11.5" cy="11.5" r="11.5" transform="translate(62 73)" fill="#f0bb3f"/>
    <path id="ic_restaurant_24px" d="M7.02,5.735H6.015V2H5.01V5.735H4.005V2H3V5.735A2.076,2.076,0,0,0,4.885,7.853v4.818H6.141V7.853A2.076,2.076,0,0,0,8.025,5.735V2H7.02Zm2.513-1.6V8.4H10.79v4.269h1.256V2A2.53,2.53,0,0,0,9.533,4.134Z" transform="translate(65.977 77.164)" fill="#fff"/>
  </g>
</svg>
