<svg xmlns="http://www.w3.org/2000/svg" width="122.176" height="17.412" viewBox="0 0 122.176 17.412">
  <g id="Group_86" data-name="Group 86" transform="translate(-79.427 -339)">
    <path id="ic_star_24px" d="M11.162,15.99l5.662,3.417-1.5-6.441,5-4.334-6.587-.559L11.162,2,8.587,8.074,2,8.633l5,4.334L5.5,19.408Z" transform="translate(77.427 337)" fill="#f0bb3f"/>
    <path id="ic_star_24px-2" data-name="ic_star_24px" d="M11.162,15.99l5.662,3.417-1.5-6.441,5-4.334-6.587-.559L11.162,2,8.587,8.074,2,8.633l5,4.334L5.5,19.408Z" transform="translate(103.389 337)" fill="#f0bb3f"/>
    <path id="ic_star_24px-3" data-name="ic_star_24px" d="M11.162,15.99l5.662,3.417-1.5-6.441,5-4.334-6.587-.559L11.162,2,8.587,8.074,2,8.633l5,4.334L5.5,19.408Z" transform="translate(129.352 337)" fill="#f0bb3f"/>
    <path id="ic_star_24px-4" data-name="ic_star_24px" d="M11.162,15.99l5.662,3.417-1.5-6.441,5-4.334-6.587-.559L11.162,2,8.587,8.074,2,8.633l5,4.334L5.5,19.408Z" transform="translate(155.314 337)" fill="#f0bb3f"/>
    <path id="ic_star_half_24px" d="M20.326,8.635l-6.588-.568L11.163,2,8.588,8.076,2,8.635,7,12.97,5.5,19.412l5.663-3.418,5.663,3.418L15.332,12.97ZM11.163,14.28V5.757l1.567,3.7,4.013.348L13.7,12.447l.916,3.922Z" transform="translate(181.277 337)" fill="#f0bb3f"/>
  </g>
</svg>
