<svg xmlns="http://www.w3.org/2000/svg" width="9.423" height="8.952" viewBox="0 0 9.423 8.952">
  <path id="ic_star_24px" d="M6.711,9.194l2.912,1.757L8.85,7.64l2.572-2.228L8.035,5.124,6.711,2,5.387,5.124,2,5.411,4.572,7.64,3.8,10.952Z" transform="translate(-2 -2)" fill="#fb0"/>
</svg>
